{
  "auxiliary" : false,
  "deployed" : true,
  "fields" : [ "customerId", "isDeleted", "isParent", "lastUpdateDate", "name", "parentId" ],
  "isPlasma" : false,
  "label" : "Customer",
  "loadableFields" : [ "customerId", "name", "parentId", "isParent" ],
  "locked" : false,
  "persistedObjectClass" : "net.pricefx.domain.Customer",
  "queryable" : true,
  "reload" : false,
  "sourceLabel" : "Customer",
  "sourceTypeCode" : "C",
  "type" : "DATASOURCE",
  "uniqueName" : "Customer",
  "valid" : true,
  "view" : false
}