{
  "aggregation" : false,
  "auxiliary" : false,
  "calculated" : false,
  "deleted" : false,
  "deployed" : true,
  "dimension" : false,
  "expression" : "LocalNetValueinUSD",
  "key" : false,
  "label" : "Local Net Value in USD",
  "labelTranslations" : { },
  "measureType" : "PERUNIT",
  "numeric" : true,
  "owningFC" : "Transactions",
  "partitioningKey" : false,
  "persisted" : true,
  "queryable" : true,
  "source" : "DMDS.Transactions",
  "system" : false,
  "time" : false,
  "type" : "NUMBER",
  "visibility" : 1
}