{
  "cssProperties" : "background-color:#c5d4f6;undefined",
  "fieldType" : 2,
  "formatType" : "TEXT",
  "label" : "Brand",
  "labelTranslations" : {
    "" : "Brand"
  },
  "readOnly" : false,
  "requiredField" : false
}