{
  "cssProperties" : "background-color:#c5d4f6;undefined",
  "fieldType" : 2,
  "formatType" : "TEXT",
  "label" : "Line",
  "labelTranslations" : {
    "" : "Line"
  },
  "readOnly" : false,
  "requiredField" : false
}