{
  "areDefault" : false,
  "areGlobal" : true,
  "columnLabels" : "{}",
  "preferenceName" : "Default",
  "viewState" : "({\"field\":[{\"frozen\":true,\"name\":\"sku\",\"visible\":true,\"width\":159},{\"frozen\":false,\"name\":\"typedId\",\"visible\":false},{\"frozen\":false,\"name\":\"label\",\"visible\":true,\"width\":285},{\"frozen\":false,\"name\":\"attribute1\",\"visible\":true,\"width\":99},{\"frozen\":false,\"name\":\"currency\",\"visible\":false},{\"frozen\":false,\"name\":\"attribute2\",\"visible\":true,\"width\":110},{\"frozen\":false,\"name\":\"formulaName\",\"visible\":false},{\"frozen\":false,\"name\":\"attribute3\",\"visible\":true,\"width\":107},{\"frozen\":false,\"name\":\"unitOfMeasure\",\"visible\":true,\"width\":113},{\"frozen\":false,\"name\":\"attribute4\",\"visible\":false},{\"frozen\":false,\"name\":\"attribute5\",\"visible\":true,\"width\":97},{\"frozen\":false,\"name\":\"attribute6\",\"visible\":true,\"width\":84},{\"frozen\":false,\"name\":\"attribute7\",\"visible\":true,\"width\":87},{\"frozen\":false,\"name\":\"attribute8\",\"visible\":true,\"width\":61},{\"frozen\":false,\"name\":\"attribute9\",\"visible\":true,\"width\":64},{\"frozen\":false,\"name\":\"attribute10\",\"visible\":true,\"width\":59},{\"frozen\":false,\"name\":\"attribute11\",\"visible\":true,\"width\":52},{\"frozen\":false,\"name\":\"attribute12\",\"visible\":true,\"width\":56},{\"frozen\":false,\"name\":\"attribute13\",\"visible\":true,\"width\":145},{\"frozen\":false,\"name\":\"attribute14\",\"visible\":true,\"width\":119},{\"frozen\":false,\"name\":\"attribute15\",\"visible\":true,\"width\":127},{\"frozen\":false,\"name\":\"attribute16\",\"visible\":true},{\"frozen\":false,\"name\":\"attribute17\",\"visible\":true},{\"frozen\":false,\"name\":\"attribute18\",\"visible\":true},{\"frozen\":false,\"name\":\"attribute19\",\"visible\":true},{\"frozen\":false,\"name\":\"attribute20\",\"visible\":true},{\"frozen\":false,\"name\":\"attribute21\",\"visible\":true,\"width\":133},{\"frozen\":false,\"name\":\"lastUpdateDate\",\"visible\":true,\"width\":125},{\"frozen\":false,\"name\":\"attribute22\",\"visible\":false},{\"frozen\":false,\"name\":\"attribute23\",\"visible\":false},{\"frozen\":false,\"name\":\"attribute24\",\"visible\":false},{\"frozen\":false,\"name\":\"attribute25\",\"visible\":false},{\"frozen\":false,\"name\":\"attribute26\",\"visible\":false},{\"frozen\":false,\"name\":\"attribute27\",\"visible\":false},{\"frozen\":false,\"name\":\"attribute28\",\"visible\":false},{\"frozen\":false,\"name\":\"attribute29\",\"visible\":false},{\"frozen\":false,\"name\":\"attribute30\",\"visible\":false},{\"frozen\":false,\"name\":\"userGroupEdit\",\"visible\":false},{\"frozen\":false,\"name\":\"userGroupViewDetails\",\"visible\":false}],\"sort\":{\"fieldName\":\"attribute19\",\"sortDir\":\"ascending\",\"sortSpecifiers\":[{\"property\":\"attribute19\",\"direction\":\"ascending\"}]},\"extraOptions\":{}})"
}