{
  "auxiliary" : false,
  "deployed" : true,
  "fields" : [ "SalesOffice", "SalesOfficeDescription", "createdByName", "isDeleted", "lastUpdateByName", "lastUpdateDate" ],
  "isPlasma" : false,
  "label" : "Sales Office",
  "loadableFields" : [ "SalesOffice", "lastUpdateByName", "createdByName", "SalesOfficeDescription" ],
  "locked" : false,
  "persistedObjectClass" : "net.pricefx.domain.MatrixLookupTableValue",
  "queryable" : true,
  "reload" : false,
  "sourceId" : "62",
  "sourceLabel" : "Sales Office",
  "sourceTypeCode" : "MATRIX",
  "type" : "DATASOURCE",
  "uniqueName" : "SalesOffice",
  "valid" : true,
  "view" : false
}