{
  "aggregation" : false,
  "auxiliary" : false,
  "calculated" : false,
  "deleted" : false,
  "deployed" : true,
  "dimension" : false,
  "expression" : "PostalCode",
  "key" : false,
  "label" : "Postal Code",
  "labelTranslations" : { },
  "numeric" : false,
  "owningFC" : "Plant",
  "partitioningKey" : false,
  "persisted" : true,
  "queryable" : true,
  "source" : "DMDS.Plant",
  "sourceField" : "attribute5",
  "system" : false,
  "time" : false,
  "type" : "TEXT",
  "visibility" : 1
}