{
  "cssProperties" : "background-color:#c5d4f6;",
  "fieldType" : 2,
  "formatType" : "TEXT",
  "label" : "Product ID",
  "labelTranslations" : {
    "" : "Material Number"
  },
  "readOnly" : false,
  "requiredField" : false
}