{
  "areDefault" : false,
  "areGlobal" : true,
  "columnLabels" : "{}",
  "preferenceName" : "Default",
  "viewState" : "({\"field\":[{\"frozen\":false,\"name\":\"typedId\",\"visible\":false},{\"frozen\":false,\"name\":\"sku\",\"visible\":true,\"width\":72},{\"frozen\":false,\"name\":\"attribute1\",\"visible\":true,\"width\":131},{\"frozen\":false,\"name\":\"attribute2\",\"visible\":true,\"width\":141},{\"frozen\":false,\"name\":\"attribute3\",\"visible\":true,\"width\":167},{\"frozen\":false,\"name\":\"attribute4\",\"visible\":true,\"width\":111},{\"frozen\":false,\"name\":\"attribute5\",\"visible\":true,\"width\":119},{\"frozen\":false,\"name\":\"attribute6\",\"visible\":true,\"width\":145},{\"frozen\":false,\"name\":\"attribute7\",\"visible\":true,\"width\":127},{\"frozen\":false,\"name\":\"attribute8\",\"visible\":true,\"width\":219},{\"frozen\":false,\"name\":\"lastUpdateDate\",\"visible\":true,\"width\":133}],\"sort\":{\"fieldName\":\"lastUpdateDate\",\"sortDir\":\"descending\",\"sortSpecifiers\":[{\"property\":\"lastUpdateDate\",\"direction\":\"descending\"}]},\"extraOptions\":{}})"
}