{
  "folder" : "Currency-Exchange Rate",
  "hideWarnings" : false,
  "isPlasma" : false,
  "label" : "Annual Exchange Rate",
  "status" : "ACTIVE",
  "type" : "MATRIX",
  "uniqueName" : "AnnualExchangeRate",
  "validAfter" : "2022-01-01",
  "valueType" : "MATRIX3"
}