{
  "auxiliary" : false,
  "deployed" : true,
  "fields" : [ "City", "Country", "HouseNumberAndStreet", "Plant", "PlantName", "PostalCode", "Region", "createdByName", "isDeleted", "lastUpdateByName", "lastUpdateDate" ],
  "isPlasma" : false,
  "label" : "Plant",
  "loadableFields" : [ "Plant", "lastUpdateByName", "createdByName", "PlantName", "Country", "Region", "HouseNumberAndStreet", "PostalCode", "City" ],
  "locked" : false,
  "persistedObjectClass" : "net.pricefx.domain.MatrixLookupTableValue",
  "queryable" : true,
  "reload" : false,
  "sourceId" : "14",
  "sourceLabel" : "Plant",
  "sourceTypeCode" : "MATRIX",
  "type" : "DATASOURCE",
  "uniqueName" : "Plant",
  "valid" : true,
  "view" : false
}