{
  "cssProperties" : "",
  "fieldName" : "attribute4",
  "fieldType" : 1,
  "formatType" : "PERCENT",
  "label" : "Bucket4",
  "labelTranslations" : {
    "" : "Bucket 4"
  },
  "readOnly" : false,
  "requiredField" : false
}