{
  "auxiliary" : false,
  "deployed" : true,
  "fields" : [ "Archetype", "MaterialNumber", "isDeleted", "lastUpdateDate", "name" ],
  "isPlasma" : false,
  "label" : "Material Archetype Mapping",
  "loadableFields" : [ "Archetype", "MaterialNumber", "name" ],
  "locked" : false,
  "persistedObjectClass" : "net.pricefx.domain.PX3",
  "queryable" : true,
  "reload" : false,
  "sourceId" : "MaterialArchetypeMapping",
  "sourceLabel" : "Material Archetype Mapping",
  "sourceTypeCode" : "PX",
  "type" : "DATASOURCE",
  "uniqueName" : "MaterialArchetypeMapping",
  "valid" : true,
  "view" : false
}