{
  "aggregation" : false,
  "auxiliary" : false,
  "calculated" : true,
  "deleted" : false,
  "deployed" : true,
  "dimension" : false,
  "expression" : "IF(WaterfallPriceininUSD != 0,WaterfallPriceininUSD,(IF(OrderQuantity!= 0,(PriceinUSD*OrderQuantity),PriceinUSD)))",
  "key" : false,
  "label" : "List Price",
  "labelTranslations" : { },
  "numeric" : true,
  "partitioningKey" : false,
  "persisted" : false,
  "queryable" : true,
  "system" : false,
  "time" : false,
  "type" : "NUMBER",
  "visibility" : 1
}