{
  "cssProperties" : "",
  "fieldType" : 2,
  "formatType" : "TEXT",
  "label" : "CustomerAccountGroup",
  "labelTranslations" : {
    "" : "Customer Account Group"
  },
  "readOnly" : false,
  "requiredField" : false
}