{
  "cssProperties" : "",
  "fieldType" : 2,
  "formatType" : "TEXT",
  "label" : "Customer ID",
  "labelTranslations" : {
    "" : "CustomerNumber"
  },
  "readOnly" : false,
  "requiredField" : true
}