{
  "cssProperties" : "",
  "fieldName" : "attribute2",
  "fieldType" : 3,
  "formatType" : "INTEGER",
  "label" : "ProductLine",
  "labelTranslations" : {
    "" : "Product Line"
  },
  "readOnly" : false,
  "requiredField" : false
}