{
  "cssProperties" : "",
  "fieldName" : "attribute3",
  "fieldType" : 3,
  "formatType" : "INTEGER",
  "label" : "ProductFamily",
  "labelTranslations" : {
    "" : "Product Family"
  },
  "readOnly" : false,
  "requiredField" : false
}