{
  "cssProperties" : "",
  "fieldName" : "name",
  "fieldType" : 2,
  "formatType" : "TEXT",
  "label" : "System",
  "labelTranslations" : {
    "" : "System"
  },
  "readOnly" : false,
  "requiredField" : true
}