{
  "areDefault" : false,
  "areGlobal" : true,
  "columnLabels" : "{}",
  "preferenceName" : "Default",
  "viewState" : "({\"field\":[{\"frozen\":false,\"name\":\"typedId\",\"visible\":false},{\"frozen\":false,\"name\":\"sku\",\"visible\":false,\"width\":118},{\"frozen\":false,\"name\":\"attribute1\",\"visible\":true,\"width\":52},{\"frozen\":false,\"name\":\"attribute2\",\"visible\":true,\"width\":93},{\"frozen\":false,\"name\":\"attribute3\",\"visible\":true,\"width\":142},{\"frozen\":false,\"name\":\"attribute4\",\"visible\":true,\"width\":73},{\"frozen\":false,\"name\":\"attribute5\",\"visible\":true,\"width\":49},{\"frozen\":false,\"name\":\"attribute6\",\"visible\":true,\"width\":79},{\"frozen\":false,\"name\":\"attribute7\",\"visible\":true,\"width\":70},{\"frozen\":false,\"name\":\"attribute8\",\"visible\":true,\"width\":98},{\"frozen\":false,\"name\":\"attribute9\",\"visible\":true,\"width\":101},{\"frozen\":false,\"name\":\"lastUpdateDate\",\"visible\":true},{\"frozen\":false,\"name\":\"attribute10\",\"visible\":false}],\"sort\":{\"fieldName\":\"lastUpdateDate\",\"sortDir\":\"descending\",\"sortSpecifiers\":[{\"property\":\"lastUpdateDate\",\"direction\":\"descending\"}]},\"extraOptions\":{}})"
}