{
  "fieldName" : "attribute1",
  "fieldType" : 1,
  "formatType" : "NUMERIC_LONG",
  "label" : "ExchangeRate",
  "labelTranslations" : {
    "" : "Exchange Rate"
  },
  "readOnly" : false,
  "requiredField" : false
}