{
  "aggregation" : false,
  "auxiliary" : false,
  "calculated" : false,
  "deleted" : false,
  "deployed" : true,
  "dimension" : false,
  "expression" : "ZPMQPromotionaldiscountsinUSD",
  "key" : false,
  "label" : "ZPMQ - Promotional discounts in USD",
  "labelTranslations" : { },
  "measureType" : "PERUNIT",
  "numeric" : true,
  "owningFC" : "Waterfall",
  "partitioningKey" : false,
  "persisted" : true,
  "queryable" : true,
  "source" : "DMDS.Waterfall",
  "system" : false,
  "time" : false,
  "type" : "MONEY",
  "visibility" : 1
}