{
  "fieldType" : 2,
  "formatType" : "TEXT",
  "label" : "PricingProcedureAssignedTo",
  "labelTranslations" : {
    "" : "Pricing procedure assigned to"
  },
  "readOnly" : false,
  "requiredField" : false
}