{
  "folder" : "PFXTemplate/CustomerInsights",
  "hideWarnings" : false,
  "isPlasma" : false,
  "status" : "ACTIVE",
  "type" : "MATRIX",
  "uniqueName" : "PFXTemplate_CustomerInsights_Configuration",
  "validAfter" : "2017-01-01",
  "valueType" : "MATRIX3"
}