{
  "aggregation" : false,
  "auxiliary" : false,
  "calculated" : false,
  "deleted" : false,
  "deployed" : true,
  "dimension" : false,
  "expression" : "CountryPrice",
  "key" : false,
  "label" : "Country Price",
  "labelTranslations" : { },
  "measureType" : "FIXED",
  "numeric" : true,
  "owningFC" : "SAP Current Price",
  "partitioningKey" : false,
  "persisted" : true,
  "queryable" : true,
  "source" : "DMDS.SAPCurrentPrice",
  "sourceField" : "attribute11",
  "system" : false,
  "time" : false,
  "type" : "NUMBER",
  "visibility" : 1
}