{
  "fieldName" : "attribute1",
  "fieldType" : 2,
  "fieldValueOptions" : {
    "ValuesRestrictedByDSConfig" : true,
    "criteriaJson" : null,
    "dataSourceLabel" : "Company Parameter Values: Regional Discounts Attributes",
    "fetchUrl_target" : {
      "fetchUrl_type" : "LT",
      "simulationSet" : null,
      "uniqueName" : "RegionalDiscountsAttributes",
      "validAfter" : "2022-01-01"
    },
    "fieldLabel" : "Attribute",
    "fieldName" : "name"
  },
  "formatType" : "TEXT",
  "label" : "BusinessKey1",
  "labelTranslations" : {
    "" : "Business Key 1"
  },
  "readOnly" : false,
  "requiredField" : false
}